%YAML 1.1
%TAG !u! tag:unity3d.com,2011:
--- !u!1045 &1
EditorBuildSettings:
  m_ObjectHideFlags: 0
  serializedVersion: 2
  m_Scenes:
  - enabled: 1
    path: Assets/Game/Scenes/Bootstrap.unity
    guid: 723a4416c7b1a6f4db091b6081ff6de3
  - enabled: 1
    path: Assets/Game/Scenes/About.unity
    guid: f29d274aeb5110446abddeb2d39bd701
  - enabled: 1
    path: Assets/Game/Scenes/Game.unity
    guid: dc7f6271d57e70c4481cf0d574049ecc
  - enabled: 1
    path: Assets/Game/Scenes/Home.unity
    guid: a066f38cc29ed494e9107f1725aa1fa4
  - enabled: 1
    path: Assets/Game/Scenes/Help.unity
    guid: 5f619c8424d519a4c8cb0aa650b8936b
  - enabled: 1
    path: Assets/Game/Scenes/Intro.unity
    guid: 29b3d4b5c187da44a846ba276162fc5a
  - enabled: 1
    path: Assets/Game/Scenes/Settings.unity
    guid: 63c9224cbd97c1248bcb8857f7192101
  - enabled: 1
    path: Assets/Game/Scenes/Win.unity
    guid: 9857358de51d3204e860a7107c9dceea
  - enabled: 1
    path: Assets/Game/Scenes/Homes/H1.unity
    guid: 39f6723223ef3984ea1b80993ef2a225
  - enabled: 1
    path: Assets/Game/Scenes/Homes/H2.unity
    guid: 5c9cdb676faab16499c6e8c812682827
  - enabled: 1
    path: Assets/Game/Scenes/Homes/H3.unity
    guid: eeba2eb57fcbfc34ab86f28665e0bf8f
  - enabled: 1
    path: Assets/Game/Scenes/Homes/H4.unity
    guid: dac89ab4a30ad0643861ea1a9d8441fe
  - enabled: 1
    path: Assets/Game/Scenes/Homes/H5.unity
    guid: 5f9ef0c4d1360c84c8f62f181ee0ff55
  - enabled: 1
    path: Assets/Game/Scenes/Homes/H6.unity
    guid: 57c9186ba516a1b42831a848b4703a8b
  - enabled: 1
    path: Assets/GameWork/WorkCamera/WorkCamera.unity
    guid: 274b579970864d24baaf026d61f49c2b
  - enabled: 1
    path: Assets/GameWork/WorkTilemap/WorkTilemap.unity
    guid: 352a32f28eb23e649bca83924563cbf3
