%YAML 1.1
%TAG !u! tag:unity3d.com,2011:
--- !u!114 &11400000
MonoBehaviour:
  m_ObjectHideFlags: 0
  m_PrefabParentObject: {fileID: 0}
  m_PrefabInternal: {fileID: 0}
  m_GameObject: {fileID: 0}
  m_Enabled: 1
  m_EditorHideFlags: 0
  m_Script: {fileID: 11500000, guid: b74f027d034f65b4384e6ea37cb16dd5, type: 3}
  m_Name: Job3
  m_EditorClassIdentifier: 
  Name: Tutorial One
  Scene: h3
  Waves: 1
  Visitors: 8
  Turns: 50
  Bonus: 1000
